Suite/Test/Step Name,Browser,Description,Tag,Start time,End time,Duration,Status
ValidateComponents,Chrome 95.0.4638.54,,,2021-10-31 18:16:03,2021-10-31 18:16:20,16.961s,PASSED
,,,,,,,
Test Cases/HomePage/ValidateDifferentComponents,Chrome 95.0.4638.54,,,2021-10-31 18:16:03,2021-10-31 18:16:20,16.662s,PASSED
"openBrowser("""")",Chrome 95.0.4638.54,,,2021-10-31 18:16:03,2021-10-31 18:16:08,4.193s,PASSED
delay(5),Chrome 95.0.4638.54,,,2021-10-31 18:16:08,2021-10-31 18:16:13,5.039s,PASSED
driver = getWebDriver(),Chrome 95.0.4638.54,,,2021-10-31 18:16:13,2021-10-31 18:16:13,0.011s,PASSED
"window().setSize(new org.openqa.selenium.Dimension(1920, 1200))",Chrome 95.0.4638.54,,,2021-10-31 18:16:13,2021-10-31 18:16:13,0.246s,PASSED
driver.get(Url),Chrome 95.0.4638.54,,,2021-10-31 18:16:13,2021-10-31 18:16:15,1.964s,PASSED
"waitForElementPresent(findTestObject(""Object Repository/ComponentsValidation/ComponentName""), 10)",Chrome 95.0.4638.54,,,2021-10-31 18:16:15,2021-10-31 18:16:16,1.455s,PASSED
"waitForElementClickable(findTestObject(""Object Repository/ComponentsValidation/ComponentName""), 10)",Chrome 95.0.4638.54,,,2021-10-31 18:16:16,2021-10-31 18:16:17,0.590s,PASSED
"componentsList = findWebElements(findTestObject(""Object Repository/ComponentsValidation/ComponentName""), 10)",Chrome 95.0.4638.54,,,2021-10-31 18:16:17,2021-10-31 18:16:17,0.377s,PASSED
componentName = new java.util.ArrayList(),Chrome 95.0.4638.54,,,2021-10-31 18:16:17,2021-10-31 18:16:17,0.005s,PASSED
for (org.openqa.selenium.WebElement element : componentsList),Chrome 95.0.4638.54,,,2021-10-31 18:16:17,2021-10-31 18:16:18,0.195s,PASSED
out.println(componentName),Chrome 95.0.4638.54,,,2021-10-31 18:16:18,2021-10-31 18:16:18,0.021s,PASSED
"verifyMatch(componentName.get(0), ""Elements"", false)",Chrome 95.0.4638.54,,,2021-10-31 18:16:18,2021-10-31 18:16:18,0.021s,PASSED
"verifyMatch(componentName.get(1), ""Forms"", false)",Chrome 95.0.4638.54,,,2021-10-31 18:16:18,2021-10-31 18:16:18,0.006s,PASSED
"verifyMatch(componentName.get(2), ""Alerts, Frame & Windows"", false)",Chrome 95.0.4638.54,,,2021-10-31 18:16:18,2021-10-31 18:16:18,0.007s,PASSED
"verifyMatch(componentName.get(3), ""Widgets"", false)",Chrome 95.0.4638.54,,,2021-10-31 18:16:18,2021-10-31 18:16:18,0.005s,PASSED
"verifyMatch(componentName.get(4), ""Interactions"", false)",Chrome 95.0.4638.54,,,2021-10-31 18:16:18,2021-10-31 18:16:18,0.008s,PASSED
"verifyMatch(componentName.get(5), ""Book Store Application"", false)",Chrome 95.0.4638.54,,,2021-10-31 18:16:18,2021-10-31 18:16:18,0.008s,PASSED
