Suite/Test/Step Name,Browser,Description,Tag,Start time,End time,Duration,Status
ValidateBookStoreFlow,Chrome 95.0.4638.54,,,2021-11-01 11:35:03,2021-11-01 11:35:41,38.170s,PASSED
,,,,,,,
Test Cases/BookStoreApplication/ValidateBookStoreFLow,Chrome 95.0.4638.54,,,2021-11-01 11:35:04,2021-11-01 11:35:41,37.851s,PASSED
"callTestCase(findTestCase(""Login/login""), [:], STOP_ON_FAILURE)",Chrome 95.0.4638.54,,,2021-11-01 11:35:04,2021-11-01 11:35:26,22.434s,PASSED
"verifyElementText(findTestObject(""Object Repository/BookStoreApplication/UserProfile/ProfileName""), Username)",Chrome 95.0.4638.54,,,2021-11-01 11:35:26,2021-11-01 11:35:27,1.022s,PASSED
"waitForElementPresent(findTestObject(""Object Repository/BookStoreApplication/UserProfile/SelectBook""), 10)",Chrome 95.0.4638.54,,,2021-11-01 11:35:27,2021-11-01 11:35:28,0.483s,PASSED
"waitForElementClickable(findTestObject(""Object Repository/BookStoreApplication/UserProfile/SelectBook""), 10)",Chrome 95.0.4638.54,,,2021-11-01 11:35:28,2021-11-01 11:35:28,0.556s,PASSED
"click(findTestObject(""Object Repository/BookStoreApplication/UserProfile/SelectBook""))",Chrome 95.0.4638.54,,,2021-11-01 11:35:28,2021-11-01 11:35:30,1.433s,PASSED
"waitForElementPresent(findTestObject(""Object Repository/BookStoreApplication/UserProfile/AddCollection""), 10)",Chrome 95.0.4638.54,,,2021-11-01 11:35:30,2021-11-01 11:35:31,1.271s,PASSED
"waitForElementClickable(findTestObject(""Object Repository/BookStoreApplication/UserProfile/AddCollection""), 10)",Chrome 95.0.4638.54,,,2021-11-01 11:35:31,2021-11-01 11:35:32,0.498s,PASSED
"click(findTestObject(""Object Repository/BookStoreApplication/UserProfile/AddCollection""))",Chrome 95.0.4638.54,,,2021-11-01 11:35:32,2021-11-01 11:35:32,0.587s,PASSED
delay(2),Chrome 95.0.4638.54,,,2021-11-01 11:35:32,2021-11-01 11:35:34,2.020s,PASSED
alertText = getAlertText(),Chrome 95.0.4638.54,,,2021-11-01 11:35:34,2021-11-01 11:35:34,0.112s,PASSED
"verifyMatch(alertText, ""Book already present in the your collection!"", false)",Chrome 95.0.4638.54,,,2021-11-01 11:35:34,2021-11-01 11:35:34,0.036s,PASSED
acceptAlert(),Chrome 95.0.4638.54,,,2021-11-01 11:35:34,2021-11-01 11:35:35,0.083s,PASSED
"scrollToElement(findTestObject(""BookStoreApplication/UserProfile/Profile""), 10)",Chrome 95.0.4638.54,,,2021-11-01 11:35:35,2021-11-01 11:35:35,0.714s,PASSED
"waitForElementPresent(findTestObject(""BookStoreApplication/UserProfile/Profile""), 10)",Chrome 95.0.4638.54,,,2021-11-01 11:35:35,2021-11-01 11:35:36,0.493s,PASSED
"waitForElementClickable(findTestObject(""BookStoreApplication/UserProfile/Profile""), 10)",Chrome 95.0.4638.54,,,2021-11-01 11:35:36,2021-11-01 11:35:36,0.585s,PASSED
"scrollToElement(findTestObject(""BookStoreApplication/UserProfile/Profile""), 10)",Chrome 95.0.4638.54,,,2021-11-01 11:35:36,2021-11-01 11:35:37,0.614s,PASSED
"click(findTestObject(""BookStoreApplication/UserProfile/Profile""))",Chrome 95.0.4638.54,,,2021-11-01 11:35:37,2021-11-01 11:35:38,0.646s,PASSED
"waitForElementPresent(findTestObject(""Object Repository/BookStoreApplication/BookStore/CollectionBooksList""), 10)",Chrome 95.0.4638.54,,,2021-11-01 11:35:38,2021-11-01 11:35:38,0.910s,PASSED
"booksList = findWebElements(findTestObject(""Object Repository/BookStoreApplication/BookStore/CollectionBooksList""), 10)",Chrome 95.0.4638.54,,,2021-11-01 11:35:38,2021-11-01 11:35:39,0.547s,PASSED
bookName = new java.util.ArrayList(),Chrome 95.0.4638.54,,,2021-11-01 11:35:39,2021-11-01 11:35:39,0.003s,PASSED
for (org.openqa.selenium.WebElement element : booksList),Chrome 95.0.4638.54,,,2021-11-01 11:35:39,2021-11-01 11:35:39,0.120s,PASSED
"if (bookName.contains(""Speaking JavaScript""))",Chrome 95.0.4638.54,,,2021-11-01 11:35:39,2021-11-01 11:35:39,0.043s,PASSED
