Suite/Test/Step Name,Browser,Description,Tag,Start time,End time,Duration,Status
ValidateComponents,Chrome 95.0.4638.54,,,2021-11-01 11:34:29,2021-11-01 11:34:48,18.618s,PASSED
,,,,,,,
Test Cases/HomePage/ValidateDifferentComponents,Chrome 95.0.4638.54,,,2021-11-01 11:34:30,2021-11-01 11:34:48,18.302s,PASSED
"openBrowser("""")",Chrome 95.0.4638.54,,,2021-11-01 11:34:30,2021-11-01 11:34:35,4.776s,PASSED
delay(5),Chrome 95.0.4638.54,,,2021-11-01 11:34:35,2021-11-01 11:34:40,5.079s,PASSED
driver = getWebDriver(),Chrome 95.0.4638.54,,,2021-11-01 11:34:40,2021-11-01 11:34:40,0.049s,PASSED
"window().setSize(new org.openqa.selenium.Dimension(1920, 1200))",Chrome 95.0.4638.54,,,2021-11-01 11:34:40,2021-11-01 11:34:40,0.246s,PASSED
driver.get(Url),Chrome 95.0.4638.54,,,2021-11-01 11:34:40,2021-11-01 11:34:43,3.034s,PASSED
"waitForElementPresent(findTestObject(""Object Repository/ComponentsValidation/ComponentName""), 10)",Chrome 95.0.4638.54,,,2021-11-01 11:34:43,2021-11-01 11:34:44,1.033s,PASSED
"waitForElementClickable(findTestObject(""Object Repository/ComponentsValidation/ComponentName""), 10)",Chrome 95.0.4638.54,,,2021-11-01 11:34:44,2021-11-01 11:34:45,0.786s,PASSED
"componentsList = findWebElements(findTestObject(""Object Repository/ComponentsValidation/ComponentName""), 10)",Chrome 95.0.4638.54,,,2021-11-01 11:34:45,2021-11-01 11:34:46,0.413s,PASSED
componentName = new java.util.ArrayList(),Chrome 95.0.4638.54,,,2021-11-01 11:34:46,2021-11-01 11:34:46,0.002s,PASSED
for (org.openqa.selenium.WebElement element : componentsList),Chrome 95.0.4638.54,,,2021-11-01 11:34:46,2021-11-01 11:34:46,0.205s,PASSED
out.println(componentName),Chrome 95.0.4638.54,,,2021-11-01 11:34:46,2021-11-01 11:34:46,0.031s,PASSED
"verifyMatch(componentName.get(0), ""Elements"", false)",Chrome 95.0.4638.54,,,2021-11-01 11:34:46,2021-11-01 11:34:46,0.022s,PASSED
"verifyMatch(componentName.get(1), ""Forms"", false)",Chrome 95.0.4638.54,,,2021-11-01 11:34:46,2021-11-01 11:34:46,0.004s,PASSED
"verifyMatch(componentName.get(2), ""Alerts, Frame & Windows"", false)",Chrome 95.0.4638.54,,,2021-11-01 11:34:46,2021-11-01 11:34:46,0.006s,PASSED
"verifyMatch(componentName.get(3), ""Widgets"", false)",Chrome 95.0.4638.54,,,2021-11-01 11:34:46,2021-11-01 11:34:46,0.006s,PASSED
"verifyMatch(componentName.get(4), ""Interactions"", false)",Chrome 95.0.4638.54,,,2021-11-01 11:34:46,2021-11-01 11:34:46,0.006s,PASSED
"verifyMatch(componentName.get(5), ""Book Store Application"", false)",Chrome 95.0.4638.54,,,2021-11-01 11:34:46,2021-11-01 11:34:46,0.005s,PASSED
