Suite/Test/Step Name,Browser,Description,Tag,Start time,End time,Duration,Status
ValidateBookStoreFlow,Chrome 95.0.4638.54,,,2021-10-31 19:19:13,2021-10-31 19:19:52,38.255s,PASSED
,,,,,,,
Test Cases/BookStoreApplication/ValidateBookStoreFLow,Chrome 95.0.4638.54,,,2021-10-31 19:19:15,2021-10-31 19:19:52,37.036s,PASSED
"callTestCase(findTestCase(""Login/login""), [:], STOP_ON_FAILURE)",Chrome 95.0.4638.54,,,2021-10-31 19:19:16,2021-10-31 19:19:39,23.708s,PASSED
"verifyElementText(findTestObject(""Object Repository/BookStoreApplication/UserProfile/ProfileName""), Username)",Chrome 95.0.4638.54,,,2021-10-31 19:19:39,2021-10-31 19:19:40,0.765s,PASSED
"waitForElementPresent(findTestObject(""Object Repository/BookStoreApplication/UserProfile/SelectBook""), 10)",Chrome 95.0.4638.54,,,2021-10-31 19:19:40,2021-10-31 19:19:40,0.351s,PASSED
"waitForElementClickable(findTestObject(""Object Repository/BookStoreApplication/UserProfile/SelectBook""), 10)",Chrome 95.0.4638.54,,,2021-10-31 19:19:40,2021-10-31 19:19:41,0.389s,PASSED
"click(findTestObject(""Object Repository/BookStoreApplication/UserProfile/SelectBook""))",Chrome 95.0.4638.54,,,2021-10-31 19:19:41,2021-10-31 19:19:42,0.972s,PASSED
"waitForElementPresent(findTestObject(""Object Repository/BookStoreApplication/UserProfile/AddCollection""), 10)",Chrome 95.0.4638.54,,,2021-10-31 19:19:42,2021-10-31 19:19:43,0.884s,PASSED
"waitForElementClickable(findTestObject(""Object Repository/BookStoreApplication/UserProfile/AddCollection""), 10)",Chrome 95.0.4638.54,,,2021-10-31 19:19:43,2021-10-31 19:19:43,0.644s,PASSED
"click(findTestObject(""Object Repository/BookStoreApplication/UserProfile/AddCollection""))",Chrome 95.0.4638.54,,,2021-10-31 19:19:43,2021-10-31 19:19:44,0.504s,PASSED
delay(2),Chrome 95.0.4638.54,,,2021-10-31 19:19:44,2021-10-31 19:19:46,2.011s,PASSED
alertText = getAlertText(),Chrome 95.0.4638.54,,,2021-10-31 19:19:46,2021-10-31 19:19:46,0.033s,PASSED
"verifyMatch(alertText, ""Book already present in the your collection!"", false)",Chrome 95.0.4638.54,,,2021-10-31 19:19:46,2021-10-31 19:19:46,0.020s,PASSED
acceptAlert(),Chrome 95.0.4638.54,,,2021-10-31 19:19:46,2021-10-31 19:19:46,0.062s,PASSED
"scrollToElement(findTestObject(""BookStoreApplication/UserProfile/Profile""), 10)",Chrome 95.0.4638.54,,,2021-10-31 19:19:46,2021-10-31 19:19:46,0.505s,PASSED
"waitForElementPresent(findTestObject(""BookStoreApplication/UserProfile/Profile""), 10)",Chrome 95.0.4638.54,,,2021-10-31 19:19:46,2021-10-31 19:19:47,0.410s,PASSED
"waitForElementClickable(findTestObject(""BookStoreApplication/UserProfile/Profile""), 10)",Chrome 95.0.4638.54,,,2021-10-31 19:19:47,2021-10-31 19:19:47,0.401s,PASSED
"scrollToElement(findTestObject(""BookStoreApplication/UserProfile/Profile""), 10)",Chrome 95.0.4638.54,,,2021-10-31 19:19:47,2021-10-31 19:19:48,0.440s,PASSED
"click(findTestObject(""BookStoreApplication/UserProfile/Profile""))",Chrome 95.0.4638.54,,,2021-10-31 19:19:48,2021-10-31 19:19:48,0.531s,PASSED
"waitForElementPresent(findTestObject(""Object Repository/BookStoreApplication/BookStore/CollectionBooksList""), 10)",Chrome 95.0.4638.54,,,2021-10-31 19:19:48,2021-10-31 19:19:49,0.616s,PASSED
"booksList = findWebElements(findTestObject(""Object Repository/BookStoreApplication/BookStore/CollectionBooksList""), 10)",Chrome 95.0.4638.54,,,2021-10-31 19:19:49,2021-10-31 19:19:49,0.436s,PASSED
bookName = new java.util.ArrayList(),Chrome 95.0.4638.54,,,2021-10-31 19:19:49,2021-10-31 19:19:49,0.001s,PASSED
for (org.openqa.selenium.WebElement element : booksList),Chrome 95.0.4638.54,,,2021-10-31 19:19:49,2021-10-31 19:19:49,0.057s,PASSED
"if (bookName.contains(""Speaking JavaScript""))",Chrome 95.0.4638.54,,,2021-10-31 19:19:49,2021-10-31 19:19:49,0.020s,PASSED
